<?xml version="1.0" encoding="UTF-8" standalone="no"?> <svg xmlns="http://www.w3.org/2000/svg" xmlns:xlink="http://www.w3.org/1999/xlink" width="1404pt" height="331pt" viewBox="0.00 0.00 1404.00 330.64">
<g id="graph0" class="graph" transform="scale(1 1) rotate(0) translate(4 326.6392)">
<title style="">%0</title>
<polygon fill="#ffffff" stroke="transparent" points="-4,4 -4,-326.6392 1400,-326.6392 1400,4 -4,4" style=""></polygon>
<g id="clust1" class="cluster">
<title style="">cluster</title>
<polygon fill="#234178" fill-opacity="0.184314" stroke="#000000" points="8,-8 8,-295.4 1388,-295.4 1388,-8 8,-8" style=""></polygon>
<text text-anchor="middle" x="698" y="-278.8" font-family="Times,serif" font-size="14.00" fill="#000000">Global</text>
</g>
<g id="clust2" class="cluster">
<title style="">cluster_1</title>
<polygon fill="#234178" fill-opacity="0.184314" stroke="#000000" points="216,-90 216,-262.6 1148,-262.6 1148,-90 216,-90" style=""></polygon>
<text text-anchor="middle" x="682" y="-246" font-family="Times,serif" font-size="14.00" fill="#000000">CellType[Cell]</text>
</g>
<g id="clust3" class="cluster">
<title style="">cluster_cpm1</title>
<polygon fill="#234178" fill-opacity="0.184314" stroke="#000000" points="531,-98 531,-174.8 799,-174.8 799,-98 531,-98" style=""></polygon>
<text text-anchor="middle" x="665" y="-158.2" font-family="Times,serif" font-size="14.00" fill="#000000">CPM plugins</text>
</g>
<!-- Gnuplotter_0_100 -->
<g id="node1" class="node">
<title style="">Gnuplotter_0_100</title>
<g id="a_node1">">
<polygon fill="#fffea3" stroke="transparent" points="138,-66 66,-66 66,-16 138,-16 138,-66" style=""></polygon>
<text text-anchor="start" x="69.507" y="-48.5" font-family="times" font-size="15.00" fill="#000000">Gnuplotter</text>
<text text-anchor="start" x="90.75" y="-24.5" font-family="times" font-size="15.00" fill="#000000">100</text>
<polygon fill="#000000" stroke="#000000" points="66,-41 66,-41 138,-41 138,-41 66,-41" style=""></polygon>
<polygon fill="none" stroke="#000000" points="66,-16 66,-66 138,-66 138,-16 66,-16" style=""></polygon>
</g>
</g>
<!-- CPM_0_1 -->
<g id="node2" class="node">
<title style="">CPM_0_1</title>
<g id="a_node2">">
<polygon fill="#fffea3" stroke="transparent" points="1221.5,-240.8 1166.5,-240.8 1166.5,-182.8 1221.5,-182.8 1221.5,-240.8" style=""></polygon>
<text text-anchor="start" x="1178.6623" y="-219.3" font-family="times" font-size="15.00" fill="#000000">CPM</text>
<text text-anchor="start" x="1190.75" y="-195.3" font-family="times" font-size="15.00" fill="#000000">1</text>
<polygon fill="#000000" stroke="#000000" points="1175,-211.8 1175,-211.8 1214,-211.8 1214,-211.8 1175,-211.8" style=""></polygon>
<polygon fill="none" stroke="#000000" points="1174.5,-186.8 1174.5,-236.8 1213.5,-236.8 1213.5,-186.8 1174.5,-186.8" style=""></polygon>
</g>
</g>
<!-- cell_center_0 -->
<g id="node4" class="node">
<title style="">cell_center_0</title>
<ellipse fill="#b5b426" stroke="#000000" cx="1325" cy="-124" rx="50.9588" ry="18" style=""></ellipse>
<ellipse fill="none" stroke="#000000" cx="1325" cy="-124" rx="54.9572" ry="22" style=""></ellipse>
<text text-anchor="middle" x="1325" y="-119.8" font-family="Times,serif" font-size="14.00" fill="#000000">cell.center</text>
</g>
<!-- CPM_0_1&#45;&gt;cell_center_0 -->
<g id="edge2" class="edge">
<title style="">CPM_0_1-&gt;cell_center_0</title>
<path fill="none" stroke="#8f100d" stroke-width="3" d="M1221.6648,-197.8564C1233.9858,-191.3104 1248.5044,-183.1256 1261,-174.8 1272.0851,-167.4141 1283.6487,-158.612 1293.8483,-150.4262" style=""></path>
<polygon fill="#8f100d" stroke="#8f100d" stroke-width="3" points="1296.1562,-153.0606 1301.7007,-144.0323 1291.7363,-147.6325 1296.1562,-153.0606" style=""></polygon>
</g>
<!-- cell_type_0 -->
<g id="node5" class="node">
<title style="">cell_type_0</title>
<ellipse fill="#d3d247" stroke="#000000" cx="1204" cy="-124" rx="44.0361" ry="18" style=""></ellipse>
<ellipse fill="none" stroke="#000000" cx="1204" cy="-124" rx="48.0377" ry="22" style=""></ellipse>
<text text-anchor="middle" x="1204" y="-119.8" font-family="Times,serif" font-size="14.00" fill="#000000">cell.type</text>
</g>
<!-- CPM_0_1&#45;&gt;cell_type_0 -->
<g id="edge3" class="edge">
<title style="">CPM_0_1-&gt;cell_type_0</title>
<path fill="none" stroke="#8f100d" stroke-width="3" d="M1197.3299,-182.5639C1198.2912,-174.1232 1199.3456,-164.8654 1200.3266,-156.2524" style=""></path>
<polygon fill="#8f100d" stroke="#8f100d" stroke-width="3" points="1203.8214,-156.4964 1201.4756,-146.1645 1196.8663,-155.7042 1203.8214,-156.4964" style=""></polygon>
</g>
<!-- VolumeConstraint_1 -->
<g id="node7" class="node">
<title style="">VolumeConstraint_1</title>
<g id="a_node7">">
<polygon fill="#fffea3" stroke="transparent" points="791,-142 673,-142 673,-106 791,-106 791,-142" style=""></polygon>
<text text-anchor="start" x="676.5908" y="-119.5" font-family="times" font-size="15.00" fill="#000000">VolumeConstraint</text>
<polygon fill="none" stroke="#000000" points="673,-111 673,-137 791,-137 791,-111 673,-111" style=""></polygon>
</g>
</g>
<!-- CPM_0_1&#45;&gt;VolumeConstraint_1 -->
<g id="edge1" class="edge">
<title style="">CPM_0_1-&gt;VolumeConstraint_1</title>
<path fill="none" stroke="#38568c" stroke-dasharray="5,2" d="M1166.2648,-189.4343C1161.7187,-186.7392 1156.8891,-184.3842 1152,-182.8 1114.2554,-170.5696 832.2643,-188.4238 795,-174.8" style=""></path>
</g>
<!-- beta_0 -->
<g id="node3" class="node">
<title style="">beta_0</title>
<ellipse fill="#d3d247" stroke="#000000" cx="47" cy="-124" rx="27.2289" ry="18" style=""></ellipse>
<ellipse fill="none" stroke="#000000" cx="47" cy="-124" rx="31.2446" ry="22" style=""></ellipse>
<text text-anchor="middle" x="47" y="-119.8" font-family="Times,serif" font-size="14.00" fill="#000000">beta</text>
</g>
<!-- beta_0&#45;&gt;Gnuplotter_0_100 -->
<g id="edge10" class="edge">
<title style="">beta_0-&gt;Gnuplotter_0_100</title>
<path fill="none" stroke="#112c5f" stroke-width="2" d="M60.314,-103.908C66.117,-95.1508 73.0805,-84.6421 79.6396,-74.7439" style=""></path>
<polygon fill="#112c5f" stroke="#112c5f" stroke-width="2" points="82.6539,-76.5312 85.2601,-66.262 76.8187,-72.6645 82.6539,-76.5312" style=""></polygon>
</g>
<!-- beta_0&#45;&gt;beta_0 -->
<g id="edge11" class="edge">
<title style="">beta_0-&gt;beta_0</title>
<path fill="none" stroke="#38568c" stroke-dasharray="5,2" d="M70.5018,-138.5858C83.8051,-141.4342 96.1221,-136.5723 96.1221,-124 96.1221,-111.4277 83.8051,-106.5658 70.5018,-109.4142" style=""></path>
</g>
<!-- kappa_0 -->
<g id="node6" class="node">
<title style="">kappa_0</title>
<ellipse fill="#d3d247" stroke="#000000" cx="152" cy="-124" rx="34.1809" ry="18" style=""></ellipse>
<ellipse fill="none" stroke="#000000" cx="152" cy="-124" rx="38.191" ry="22" style=""></ellipse>
<text text-anchor="middle" x="152" y="-119.8" font-family="Times,serif" font-size="14.00" fill="#000000">kappa</text>
</g>
<!-- kappa_0&#45;&gt;Gnuplotter_0_100 -->
<g id="edge15" class="edge">
<title style="">kappa_0-&gt;Gnuplotter_0_100</title>
<path fill="none" stroke="#112c5f" stroke-width="2" d="M139.3829,-103.0556C134.1999,-94.4519 128.067,-84.2712 122.2835,-74.6706" style=""></path>
<polygon fill="#112c5f" stroke="#112c5f" stroke-width="2" points="125.2658,-72.8384 117.1076,-66.0787 119.2698,-76.4505 125.2658,-72.8384" style=""></polygon>
</g>
<!-- kappa_0&#45;&gt;kappa_0 -->
<g id="edge16" class="edge">
<title style="">kappa_0-&gt;kappa_0</title>
<path fill="none" stroke="#38568c" stroke-dasharray="5,2" d="M180.2856,-138.8345C194.9115,-141.1167 208.0954,-136.1719 208.0954,-124 208.0954,-111.8281 194.9115,-106.8833 180.2856,-109.1655" style=""></path>
</g>
<!-- SurfaceConstraint_1 -->
<g id="node8" class="node">
<title style="">SurfaceConstraint_1</title>
<g id="a_node8">">
<polygon fill="#fffea3" stroke="transparent" points="655,-142 539,-142 539,-106 655,-106 655,-142" style=""></polygon>
<text text-anchor="start" x="542.8523" y="-119.5" font-family="times" font-size="15.00" fill="#000000">SurfaceConstraint</text>
<polygon fill="none" stroke="#000000" points="539,-111 539,-137 655,-137 655,-111 539,-111" style=""></polygon>
</g>
</g>
<!-- CircPerim_1 -->
<g id="node9" class="node">
<title style="">CircPerim_1</title>
<g id="a_node9">
<ellipse fill="#d3d247" stroke="#000000" cx="433" cy="-211.8" rx="50.9561" ry="18" style=""></ellipse>
<text text-anchor="middle" x="433" y="-207.6" font-family="Times,serif" font-size="14.00" fill="#000000">CircPerim</text>
</g>
</g>
<!-- CircPerim_1&#45;&gt;SurfaceConstraint_1 -->
<g id="edge4" class="edge">
<title style="">CircPerim_1-&gt;SurfaceConstraint_1</title>
<path fill="none" stroke="#112c5f" stroke-width="2" d="M460.7499,-196.5125C470.6878,-191.546 482.1248,-186.3946 493,-182.8 511.0423,-176.8365 517.7861,-182.8478 535,-174.8 548.4608,-168.5068 561.4792,-158.6252 572.0824,-149.2436" style=""></path>
<polygon fill="#112c5f" stroke="#112c5f" stroke-width="2" points="574.7059,-151.5855 579.6872,-142.2346 569.9619,-146.4382 574.7059,-151.5855" style=""></polygon>
</g>
<!-- Jmed_1 -->
<g id="node10" class="node">
<title style="">Jmed_1</title>
<g id="a_node10">
<ellipse fill="#d3d247" stroke="#000000" cx="883" cy="-211.8" rx="31.339" ry="18" style=""></ellipse>
<text text-anchor="middle" x="883" y="-207.6" font-family="Times,serif" font-size="14.00" fill="#000000">Jmed</text>
</g>
</g>
<!-- Jmed_1&#45;&gt;CPM_0_1 -->
<g id="edge5" class="edge">
<title style="">Jmed_1-&gt;CPM_0_1</title>
<path fill="none" stroke="#112c5f" stroke-width="2" d="M885.7753,-230.0559C890.5156,-254.0531 902.6812,-295.28 932,-313.4 951.943,-325.7255 1123.0473,-325.7098 1143,-313.4 1165.0939,-299.7692 1177.9477,-273.3233 1185.2239,-250.8298" style=""></path>
<polygon fill="#112c5f" stroke="#112c5f" stroke-width="2" points="1188.6044,-251.7407 1188.0996,-241.1579 1181.8947,-249.7457 1188.6044,-251.7407" style=""></polygon>
</g>
<!-- LambA_1 -->
<g id="node11" class="node">
<title style="">LambA_1</title>
<g id="a_node11">
<ellipse fill="#d3d247" stroke="#000000" cx="793" cy="-211.8" rx="40.5693" ry="18" style=""></ellipse>
<text text-anchor="middle" x="793" y="-207.6" font-family="Times,serif" font-size="14.00" fill="#000000">LambA</text>
</g>
</g>
<!-- LambA_1&#45;&gt;VolumeConstraint_1 -->
<g id="edge6" class="edge">
<title style="">LambA_1-&gt;VolumeConstraint_1</title>
<path fill="none" stroke="#112c5f" stroke-width="2" d="M780.9484,-194.4535C772.2648,-181.9549 760.3855,-164.8565 750.5044,-150.6341" style=""></path>
<polygon fill="#112c5f" stroke="#112c5f" stroke-width="2" points="753.2367,-148.4327 744.6566,-142.2172 747.488,-152.4267 753.2367,-148.4327" style=""></polygon>
</g>
<!-- LambP_1 -->
<g id="node12" class="node">
<title style="">LambP_1</title>
<g id="a_node12">
<ellipse fill="#d3d247" stroke="#000000" cx="623" cy="-211.8" rx="38.8632" ry="18" style=""></ellipse>
<text text-anchor="middle" x="623" y="-207.6" font-family="Times,serif" font-size="14.00" fill="#000000">LambP</text>
</g>
</g>
<!-- LambP_1&#45;&gt;SurfaceConstraint_1 -->
<g id="edge7" class="edge">
<title style="">LambP_1-&gt;SurfaceConstraint_1</title>
<path fill="none" stroke="#112c5f" stroke-width="2" d="M617.6128,-193.6078C614.0569,-181.6 609.3278,-165.6301 605.2963,-152.0159" style=""></path>
<polygon fill="#112c5f" stroke="#112c5f" stroke-width="2" points="608.5757,-150.7635 602.3803,-142.1689 601.8638,-152.7511 608.5757,-150.7635" style=""></polygon>
</g>
<!-- Ra_1 -->
<g id="node13" class="node">
<title style="">Ra_1</title>
<g id="a_node13">
<ellipse fill="#d3d247" stroke="#000000" cx="707" cy="-211.8" rx="27" ry="18" style=""></ellipse>
<text text-anchor="middle" x="707" y="-207.6" font-family="Times,serif" font-size="14.00" fill="#000000">Ra</text>
</g>
</g>
<!-- Ra_1&#45;&gt;VolumeConstraint_1 -->
<g id="edge8" class="edge">
<title style="">Ra_1-&gt;VolumeConstraint_1</title>
<path fill="none" stroke="#112c5f" stroke-width="2" d="M712.0591,-194.0324C715.4927,-181.9735 720.1041,-165.7785 724.0274,-151.9997" style=""></path>
<polygon fill="#112c5f" stroke="#112c5f" stroke-width="2" points="727.4902,-152.6188 726.8626,-142.0426 720.7578,-150.7018 727.4902,-152.6188" style=""></polygon>
</g>
<!-- alpha_1 -->
<g id="node14" class="node">
<title style="">alpha_1</title>
<g id="a_node14">
<ellipse fill="#d3d247" stroke="#000000" cx="534" cy="-211.8" rx="31.9012" ry="18" style=""></ellipse>
<text text-anchor="middle" x="534" y="-207.6" font-family="Times,serif" font-size="14.00" fill="#000000">alpha</text>
</g>
</g>
<!-- alpha_1&#45;&gt;SurfaceConstraint_1 -->
<g id="edge9" class="edge">
<title style="">alpha_1-&gt;SurfaceConstraint_1</title>
<path fill="none" stroke="#112c5f" stroke-width="2" d="M546.147,-194.8713C555.1486,-182.3262 567.5927,-164.9835 577.9176,-150.5942" style=""></path>
<polygon fill="#112c5f" stroke="#112c5f" stroke-width="2" points="581.0365,-152.2511 584.0227,-142.0858 575.3491,-148.1701 581.0365,-152.2511" style=""></polygon>
</g>
<!-- beta_1 -->
<g id="node15" class="node">
<title style="">beta_1</title>
<g id="a_node15">
<ellipse fill="#d3d247" stroke="#000000" cx="251" cy="-211.8" rx="27.2447" ry="18" style=""></ellipse>
<text text-anchor="middle" x="251" y="-207.6" font-family="Times,serif" font-size="14.00" fill="#000000">beta</text>
</g>
</g>
<!-- beta_1&#45;&gt;beta_0 -->
<g id="edge12" class="edge">
<title style="">beta_1-&gt;beta_0</title>
<path fill="none" stroke="#38568c" stroke-dasharray="5,2" d="M224.0747,-208.8201C193.7081,-204.6102 143.5415,-195.0496 105,-174.8 89.5954,-166.7064 74.8794,-153.7329 64.1251,-142.9228" style=""></path>
</g>
<!-- cell_center_1 -->
<g id="node16" class="node">
<title style="">cell_center_1</title>
<ellipse fill="#b5b426" stroke="#000000" cx="1089" cy="-211.8" rx="50.9572" ry="18" style=""></ellipse>
<text text-anchor="middle" x="1089" y="-207.6" font-family="Times,serif" font-size="14.00" fill="#000000">cell.center</text>
</g>
<!-- cell_center_1&#45;&gt;cell_center_0 -->
<g id="edge13" class="edge">
<title style="">cell_center_1-&gt;cell_center_0</title>
<path fill="none" stroke="#38568c" stroke-dasharray="5,2" d="M1113.8117,-195.9038C1122.9523,-190.8196 1133.6161,-185.7494 1144,-182.8 1194.1381,-168.5589 1212.3981,-193.6282 1261,-174.8 1277.7995,-168.2919 1293.6817,-155.7387 1305.4223,-144.74" style=""></path>
</g>
<!-- cell_type_1 -->
<g id="node17" class="node">
<title style="">cell_type_1</title>
<g id="a_node17">
<ellipse fill="#d3d247" stroke="#000000" cx="976" cy="-211.8" rx="44.0377" ry="18" style=""></ellipse>
<text text-anchor="middle" x="976" y="-207.6" font-family="Times,serif" font-size="14.00" fill="#000000">cell.type</text>
</g>
</g>
<!-- cell_type_1&#45;&gt;cell_type_0 -->
<g id="edge14" class="edge">
<title style="">cell_type_1-&gt;cell_type_0</title>
<path fill="none" stroke="#38568c" stroke-dasharray="5,2" d="M1001.1517,-196.8547C1009.8123,-192.0291 1019.6789,-186.8779 1029,-182.8 1073.6331,-163.2731 1126.9587,-146.2051 1162.9196,-135.5601" style=""></path>
</g>
<!-- kappa_1 -->
<g id="node18" class="node">
<title style="">kappa_1</title>
<g id="a_node18">
<ellipse fill="#d3d247" stroke="#000000" cx="330" cy="-211.8" rx="34.191" ry="18" style=""></ellipse>
<text text-anchor="middle" x="330" y="-207.6" font-family="Times,serif" font-size="14.00" fill="#000000">kappa</text>
</g>
</g>
<!-- kappa_1&#45;&gt;kappa_0 -->
<g id="edge17" class="edge">
<title style="">kappa_1-&gt;kappa_0</title>
<path fill="none" stroke="#38568c" stroke-dasharray="5,2" d="M309.9194,-197.1485C302.8497,-192.2917 294.7353,-187.0466 287,-182.8 253.0499,-164.1619 212.0027,-146.9906 184.1487,-136.0775" style=""></path>
</g>
</g>
</svg>